ply
format ascii 1.0
comment VCGLIB generated
element vertex 290
property float x
property float y
property float z
property float nx
property float ny
property float nz
property float texture_u
property float texture_v
element face 148
property list uchar int vertex_indices
end_header
-0.003164 0.26506 -0.013683 0.7653621 1.847761 0 0.049949 0.956242
-0.003164 0.26506 4.896317 0.382681 0.9238806 0 0.049949 0.000393
0.251395 0.159619 4.896317 0.7653621 1.847761 0 0.000393 0.000393
0.251395 0.159619 -0.013683 0.382681 0.9238806 0 0.000393 0.956242
0.251395 0.159619 -0.013683 1.847761 0.765362 0 0.300087 0.956242
0.251395 0.159619 4.896317 0.9238806 0.382681 0 0.300087 0.000393
0.356836 -0.09494 4.896317 1.847761 0.765362 0 0.349643 0.000393
0.356836 -0.09494 -0.013683 0.9238806 0.382681 0 0.349643 0.956242
0.356836 -0.09494 -0.013683 1.84776 -0.7653646 0 0.349643 0.956242
0.356836 -0.09494 4.896317 0.92388 -0.3826823 0 0.349643 0.000393
0.251395 -0.349498 4.896317 1.84776 -0.7653646 0 0.399199 0.000393
0.251395 -0.349498 -0.013683 0.92388 -0.3826823 0 0.399199 0.956242
0.251395 -0.349498 -0.013683 0.7653682 -1.847759 0 0.100291 0.956242
0.251395 -0.349498 4.896317 0.3826841 -0.9238793 0 0.100291 0.000393
-0.003164 -0.45494 4.896317 0.7653682 -1.847759 0 0.149847 0.000393
-0.003164 -0.45494 -0.013683 0.3826841 -0.9238793 0 0.149847 0.956242
-0.003164 -0.45494 -0.013683 -0.7653707 -1.847757 0 0.149847 0.956242
-0.003164 -0.45494 4.896317 -0.3826854 -0.9238787 0 0.149847 0.000393
-0.257722 -0.349498 4.896317 -0.7653707 -1.847757 0 0.199403 0.000393
-0.257722 -0.349498 -0.013683 -0.3826854 -0.9238787 0 0.199403 0.956242
-0.257722 -0.349498 -0.013683 -1.847757 -0.7653709 0 0.299301 0.956242
-0.257722 -0.349498 4.896317 -0.9238787 -0.3826855 0 0.299301 0.000393
-0.363164 -0.09494 4.896317 -1.847757 -0.7653709 0 0.249745 0.000393
-0.363164 -0.09494 -0.013683 -0.9238787 -0.3826855 0 0.249745 0.956242
-0.003164 0.26506 4.896317 -0.7653646 1.84776 0 0.649336 0.733558
-0.257722 0.159619 4.896317 -0.3826823 0.92388 0 0.698892 0.733558
-0.257722 0.159619 8.662436 -0.7653646 1.84776 0 0.698892 0.000393
-0.003164 0.26506 8.243433 -0.3826823 0.92388 0 0.649336 0.081962
-0.363164 -0.09494 -0.013683 -1.847759 0.7653683 0 0.249745 0.956242
-0.363164 -0.09494 4.896317 -0.9238793 0.3826841 0 0.249745 0.000393
-0.257722 0.159619 4.896317 -1.847759 0.7653683 0 0.200189 0.000393
-0.257722 0.159619 -0.013683 -0.9238793 0.3826841 0 0.200189 0.956242
-0.003164 0.26506 4.896317 -0.7653646 1.84776 0 0.049949 0.000393
-0.003164 0.26506 -0.013683 -0.3826823 0.92388 0 0.049949 0.956242
-0.257722 0.159619 -0.013683 -0.7653646 1.84776 0 0.099505 0.956242
-0.257722 0.159619 4.896317 -0.3826823 0.92388 0 0.099505 0.000393
-0.257722 0.159619 -0.013683 0 0 -4 0.763956 0.895815
-0.003164 0.26506 -0.013683 0 0 -1 0.763956 0.949454
0.251395 0.159619 -0.013683 0 0 -3 0.801884 0.987382
0.356836 -0.09494 -0.013683 0 0 -1 0.855523 0.987382
0.251395 -0.349498 -0.013683 0 0 -4 0.893451 0.949454
-0.003164 -0.45494 -0.013683 0 0 -1 0.893451 0.895815
-0.257722 -0.349498 -0.013683 0 0 -3 0.855523 0.857886
-0.363164 -0.09494 -0.013683 0 0 -1 0.801884 0.857887
0.356836 -0.09494 9.118516 0 0 4 0.491552 0.952627
0.251395 0.159619 9.118516 0 0 1 0.437913 0.952627
-0.003164 0.26506 9.118516 0 0 3 0.399985 0.914699
-0.257722 0.159619 9.118516 0 0 1 0.399985 0.861060
-0.363164 -0.09494 9.118516 0 0 4 0.437913 0.823132
-0.257722 -0.349498 9.118516 0 0 1 0.491552 0.823131
-0.003164 -0.45494 9.118516 0 0 3 0.529480 0.861060
0.251395 -0.349498 9.118516 0 0 1 0.529480 0.914699
0.251395 0.159619 4.896317 0.7653621 1.847761 0 0.599780 0.733558
-0.003164 0.26506 4.896317 0.382681 0.9238806 0 0.649336 0.733558
-0.003164 0.26506 8.243433 0.7653621 1.847761 0 0.649336 0.081962
0.251395 0.159619 8.645452 0.382681 0.9238806 0 0.599780 0.003699
0.251395 -0.349498 8.601395 1.84776 -0.7653645 0 0.598994 0.122951
0.251395 -0.349498 4.896317 0.92388 -0.3826823 0 0.598994 0.822345
0.356836 -0.09494 4.896317 2.77164 -1.148047 0 0.549438 0.822345
0.356836 -0.09494 9.118516 0.92388 -0.3826823 0 0.549438 0.000393
0.251395 -0.349498 9.118516 1.84776 -0.7653645 0 0.598994 0.000393
-0.363164 -0.09494 9.118516 -2.771636 -1.148056 0 0.449541 0.000393
-0.363164 -0.09494 4.896317 -0.9238787 -0.3826854 0 0.449541 0.822345
-0.257722 -0.349498 4.896317 -1.847757 -0.7653708 0 0.499096 0.822345
-0.257722 -0.349498 8.624483 -1.847757 -0.7653708 0 0.499097 0.129909
-0.257722 -0.349498 9.118516 -0.9238787 -0.3826854 0 0.499097 0.000393
-0.003164 -0.45494 4.896317 0.7653682 -1.847759 0 0.749234 0.699788
0.251395 -0.349498 4.896317 0.3826841 -0.9238793 0 0.699678 0.699788
0.251395 -0.349498 8.601395 0.7653682 -1.847759 0 0.699678 0.000393
-0.003164 -0.45494 8.231602 0.3826841 -0.9238793 0 0.749234 0.050494
-0.257722 0.159619 8.662436 -1.847759 0.7653681 0 0.399985 0.089180
-0.257722 0.159619 4.896317 -0.9238793 0.3826841 0 0.399985 0.822345
-0.363164 -0.09494 4.896317 -2.771638 1.148052 0 0.449541 0.822345
-0.363164 -0.09494 9.118516 -0.9238793 0.3826841 0 0.449541 0.000393
-0.257722 0.159619 9.118516 -1.847759 0.7653681 0 0.399985 0.000393
0.356836 -0.09494 9.118516 1.847761 0.765362 0 0.549438 0.000393
0.356836 -0.09494 4.896317 0.9238805 0.382681 0 0.549438 0.822345
0.251395 0.159619 4.896317 1.847761 0.765362 0 0.499882 0.822345
0.251395 0.159619 4.896317 0 0 0 0.499882 0.822345
0.251395 0.159619 8.645452 0 0 0 0.499883 0.092486
0.251395 0.159619 9.118516 0 0 0 0.499883 0.000393
0.251395 0.159619 9.118516 0.9238805 0.382681 0 0.499883 0.000393
-0.257722 -0.349498 4.896317 -0.7653707 -1.847758 0 0.798790 0.699788
-0.003164 -0.45494 4.896317 -0.3826853 -0.9238788 0 0.749234 0.699788
-0.003164 -0.45494 8.231602 -0.7653707 -1.847758 0 0.749234 0.050494
-0.257722 -0.349498 8.624483 -0.3826853 -0.9238788 0 0.798790 0.007352
-0.003164 -1.031322 8.168848 1.36539 0.5313041 -1.361406 0.926136 0.735113
0.251395 -0.92588 8.510828 0.6826951 0.265652 -0.6807029 0.972974 0.761254
0.214953 -1.485968 8.210173 1.36539 0.5313041 -1.361406 0.978586 0.652133
-0.003164 -1.576315 7.989655 0.6826951 0.265652 -0.6807029 0.938454 0.629734
-0.257722 -0.349498 8.624483 -1.632527 0.1555482 -1.14484 0.999607 0.000393
-0.003164 -0.45494 8.231602 -0.8162636 0.07777412 -0.5724202 0.950051 0.020920
-0.003164 -1.031322 8.168848 -1.632527 0.1555482 -1.14484 0.950051 0.133126
-0.257722 -0.92588 8.531564 -0.8162636 0.07777412 -0.5724202 0.999607 0.112600
-0.003164 -0.45494 8.881492 0.7653682 -1.847759 0 0.950051 0.286151
0.251395 -0.349498 8.601395 0.3826841 -0.9238793 0 0.900495 0.362566
0.251395 -0.349498 9.118516 0.7653682 -1.847759 0 0.900495 0.240008
-0.003164 -0.45494 9.118516 0.3826841 -0.9238793 0 0.950051 0.240008
-0.257722 -0.349498 8.624483 -0.7653707 -1.847757 0 0.999607 0.369525
-0.003164 -0.45494 8.881492 -0.3826854 -0.9238787 0 0.950051 0.286151
-0.003164 -0.45494 9.118516 -0.7653707 -1.847757 0 0.950051 0.240008
-0.257722 -0.349498 9.118516 -0.3826854 -0.9238787 0 0.999607 0.240008
-0.003164 -0.45494 8.231602 1.598704 0.1578051 -1.19132 0.950051 0.020920
0.251395 -0.349498 8.601395 0.799352 0.07890257 -0.5956598 0.900495 0.000393
0.251395 -0.92588 8.510828 1.598704 0.1578051 -1.19132 0.900495 0.112600
-0.003164 -1.031322 8.168848 0.799352 0.07890257 -0.5956598 0.950051 0.133126
-0.003164 -1.031322 8.818738 -1.625525 -0.6131545 0.990813 0.820636 0.466920
-0.257722 -0.92588 8.531564 -0.8127624 -0.3065773 0.4954065 0.899709 0.433453
-0.22128 -1.485968 8.179544 -1.625525 -0.6131545 0.990813 0.867329 0.321533
-0.003164 -1.576315 8.546507 -0.8127624 -0.3065773 0.4954065 0.799576 0.350209
0.251395 -0.349498 8.601395 1.535131 -0.1680253 1.270882 0.984775 0.993246
-0.003164 -0.45494 8.881492 0.7675655 -0.08401266 0.6354408 0.905757 0.989154
-0.003164 -1.031322 8.818738 1.535131 -0.1680253 1.270882 0.894237 0.876873
0.251395 -0.92588 8.510828 0.7675655 -0.08401266 0.6354408 0.973256 0.880965
-0.003164 -0.45494 8.881492 -1.488041 -0.1795951 1.32419 0.905757 0.989154
-0.257722 -0.349498 8.624483 -0.7440203 -0.08979753 0.6620952 0.991580 0.991790
-0.257722 -0.92588 8.531564 -1.488041 -0.1795951 1.32419 0.980060 0.879510
-0.003164 -1.031322 8.818738 -0.7440203 -0.08979753 0.6620952 0.894237 0.876873
0.214953 -1.485968 8.210173 1.640933 -0.7505716 0.8625442 0.862553 0.325102
-0.003164 -1.576315 8.546507 0.8204663 -0.3752858 0.4312721 0.799576 0.350209
-0.003164 -1.979971 8.195252 1.640933 -0.7505716 0.8625442 0.807310 0.246329
0.165368 -1.910163 7.935377 0.8204663 -0.3752858 0.4312721 0.855970 0.226930
-0.22128 -1.485968 8.179544 -0.9762276 0.8489056 -1.525234 0.894237 0.642273
-0.003164 -1.576315 7.989655 -0.4881138 0.4244528 -0.7626171 0.938454 0.629734
-0.003164 -1.979971 7.76499 -0.9762276 0.8489056 -1.525234 0.947577 0.551684
-0.171695 -1.910163 7.911712 -0.4881138 0.4244528 -0.7626171 0.913413 0.561373
-0.257722 -0.92588 8.531564 -1.278466 0.657904 -1.390211 0.999607 0.112600
-0.003164 -1.031322 8.168848 -0.6392331 0.328952 -0.6951056 0.950051 0.133126
-0.003164 -1.576315 7.989655 -1.278466 0.657904 -1.390211 0.950051 0.239222
-0.22128 -1.485968 8.179544 -0.6392331 0.328952 -0.6951056 0.992513 0.221634
0.251395 -0.92588 8.510828 1.62233 -0.5791862 1.016164 0.973256 0.880965
-0.003164 -1.031322 8.818738 0.8111649 -0.2895931 0.5080822 0.894237 0.876873
-0.003164 -1.576315 8.546507 1.62233 -0.5791862 1.016164 0.923874 0.762040
0.214953 -1.485968 8.210173 0.8111649 -0.2895931 0.5080822 0.991580 0.765546
0.165368 -1.910163 7.935377 1.582642 -0.9486866 0.7715173 0.855970 0.226930
-0.003164 -1.979971 8.195252 0.7913209 -0.4743433 0.3857586 0.807310 0.246329
-0.003164 -2.414288 7.661202 1.582642 -0.9486866 0.7715173 0.839975 0.116365
0.081242 -2.379325 7.531048 0.7913209 -0.4743433 0.3857586 0.864346 0.106649
-0.171695 -1.910163 7.911712 -0.8299587 1.077791 -1.46613 0.913413 0.561373
-0.003164 -1.979971 7.76499 -0.4149793 0.5388954 -0.7330648 0.947577 0.551684
-0.003164 -2.414288 7.445713 -0.8299587 1.077791 -1.46613 0.957394 0.467706
-0.08757 -2.379325 7.519196 -0.4149793 0.5388954 -0.7330648 0.940283 0.472558
-0.003164 -1.576315 8.546507 -1.677735 -0.7146521 0.8212663 0.799576 0.350209
-0.22128 -1.485968 8.179544 -0.8388674 -0.357326 0.4106331 0.867329 0.321533
-0.171695 -1.910163 7.911712 -1.677735 -0.7146521 0.8212663 0.859660 0.224172
-0.003164 -1.979971 8.195252 -0.8388674 -0.357326 0.4106331 0.807310 0.246329
-0.003164 -1.576315 7.989655 1.126828 0.8035764 -1.443788 0.938454 0.629734
0.214953 -1.485968 8.210173 0.5634141 0.4017882 -0.7218939 0.978586 0.652133
0.165368 -1.910163 7.935377 1.126828 0.8035764 -1.443788 0.978586 0.568991
-0.003164 -1.979971 7.76499 0.5634141 0.4017882 -0.7218939 0.947577 0.551684
-0.003164 -2.414288 7.445713 0.5244672 1.547825 -1.152897 0.778652 0.718129
0.081242 -2.379325 7.531048 0.2622336 0.7739127 -0.5764484 0.794073 0.700574
0.01953 -2.707798 7.061984 0.5244672 1.547825 -1.152897 0.703824 0.718953
-0.003164 -2.717197 7.039041 0.2622336 0.7739127 -0.5764484 0.699678 0.723673
-0.003164 -2.414288 7.661202 -1.515232 -1.150136 0.617461 0.839975 0.116365
-0.08757 -2.379325 7.519196 -0.757616 -0.5750682 0.3087305 0.866194 0.105268
-0.025857 -2.707798 7.058797 -1.515232 -1.150136 0.617461 0.899709 0.000393
-0.003164 -2.717197 7.096977 -0.757616 -0.5750682 0.3087305 0.892660 0.003376
-0.003164 -1.979971 8.195252 -1.620659 -0.9092323 0.7394336 0.807310 0.246329
-0.171695 -1.910163 7.911712 -0.8103294 -0.4546162 0.3697168 0.859660 0.224172
-0.08757 -2.379325 7.519196 -1.620659 -0.9092323 0.7394336 0.866194 0.105268
-0.003164 -2.414288 7.661202 -0.8103294 -0.4546162 0.3697168 0.839975 0.116365
-0.003164 -1.979971 7.76499 0.98941 1.029493 -1.400432 0.947577 0.551684
0.165368 -1.910163 7.935377 0.494705 0.5147467 -0.7002162 0.978586 0.568991
0.081242 -2.379325 7.531048 0.98941 1.029493 -1.400432 0.972924 0.476374
-0.003164 -2.414288 7.445713 0.494705 0.5147467 -0.7002162 0.957394 0.467706
-0.003164 -2.717197 7.039041 0.3826408 -0.9238972 0 0.699678 0.723673
0.01953 -2.707798 7.061984 0.3826408 -0.9238972 0 0.703824 0.718953
-0.003164 -2.717197 7.096977 0.3826408 -0.9238972 0 0.710929 0.722883
-0.003164 -2.717197 7.096977 -0.3826552 -0.9238912 0 0.710929 0.722883
-0.025857 -2.707798 7.058797 -0.3826552 -0.9238912 0 0.703824 0.727811
-0.003164 -2.717197 7.039041 -0.3826552 -0.9238912 0 0.699678 0.723673
-0.08757 -2.379325 7.519196 -0.3692679 1.576379 -1.174168 0.794073 0.733518
-0.003164 -2.414288 7.445713 -0.1846339 0.7881894 -0.5870842 0.778652 0.718129
-0.003164 -2.717197 7.039041 -0.3692679 1.576379 -1.174168 0.699678 0.723673
-0.025857 -2.707798 7.058797 -0.1846339 0.7881894 -0.5870842 0.703824 0.727811
0.081242 -2.379325 7.531048 1.476394 -1.188697 0.6381701 0.864346 0.106649
-0.003164 -2.414288 7.661202 0.738197 -0.5943484 0.319085 0.839975 0.116365
-0.003164 -2.717197 7.096977 1.476394 -1.188697 0.6381701 0.892660 0.003376
0.01953 -2.707798 7.061984 0.738197 -0.5943484 0.319085 0.899212 0.000764
-0.257722 0.159619 8.662436 -1.472424 0 1.353502 0.660527 0.734344
-0.003164 0.26506 8.93936 -0.7362121 0 0.676751 0.605210 0.750705
-0.003164 0.631237 8.93936 -1.472424 0 1.353502 0.599780 0.821783
-0.257722 0.525795 8.662436 -0.7362121 0 0.676751 0.655097 0.805422
-0.003164 0.631237 8.93936 1.549775 0.4678367 1.174447 0.599780 0.821783
0.251395 0.525795 8.645452 0.7748874 0.2339184 0.5872236 0.658394 0.805674
0.183984 0.943769 8.567907 1.549775 0.4678367 1.174447 0.667248 0.887956
-0.003164 1.021288 8.783984 0.7748874 0.2339184 0.5872236 0.624156 0.899799
-0.003164 0.26506 8.93936 -0.7653645 1.84776 0 0.950051 0.427527
-0.257722 0.159619 8.662436 -0.3826823 0.92388 0 0.900495 0.373617
-0.257722 0.159619 9.118516 -0.7653645 1.84776 0 0.900495 0.462404
-0.003164 0.26506 9.118516 -0.3826823 0.92388 0 0.950051 0.462404
0.251395 0.159619 8.645452 1.689738 0 -1.069946 0.663824 0.734596
-0.003164 0.26506 8.243433 0.8448692 0 -0.5349729 0.740295 0.761025
-0.003164 0.631237 8.243433 1.689738 0 -1.069946 0.734866 0.832103
0.251395 0.525795 8.645452 0.8448692 0 -0.5349729 0.658394 0.805674
-0.003164 0.26506 8.93936 0.765362 1.847761 0 0.950051 0.427527
-0.003164 0.26506 9.118516 0.382681 0.9238806 0 0.950051 0.462404
0.251395 0.159619 9.118516 0.765362 1.847761 0 0.999607 0.462404
0.251395 0.159619 8.645452 0.382681 0.9238806 0 0.999607 0.370311
0.251395 0.525795 8.645452 1.697651 0.07817058 -1.054452 0.658394 0.805674
-0.003164 0.631237 8.243433 0.8488257 0.03908529 -0.5272261 0.734866 0.832103
-0.003164 1.021288 8.272348 1.697651 0.07817058 -1.054452 0.723469 0.907386
0.183984 0.943769 8.567907 0.8488257 0.03908529 -0.5272261 0.667248 0.887956
-0.003164 0.26506 8.243433 -1.709279 0 -1.038444 0.740295 0.761025
-0.257722 0.159619 8.662436 -0.8546395 0 -0.519222 0.660527 0.734344
-0.257722 0.525795 8.662436 -1.709279 0 -1.038444 0.655097 0.805422
-0.003164 0.631237 8.243433 -0.8546395 0 -0.519222 0.734866 0.832103
-0.003164 0.26506 8.93936 1.511789 0 1.309387 0.605210 0.750705
0.251395 0.159619 8.645452 0.7558945 0 0.6546935 0.663824 0.734596
0.251395 0.525795 8.645452 1.511789 0 1.309387 0.658394 0.805674
-0.003164 0.631237 8.93936 0.7558945 0 0.6546935 0.599780 0.821783
-0.003164 1.021288 8.783984 1.547083 0.5442149 1.144712 0.810557 0.467706
0.183984 0.943769 8.567907 0.7735414 0.2721075 0.5723559 0.853931 0.478466
0.163824 1.307489 8.422235 1.547083 0.5442149 1.144712 0.838279 0.553117
-0.003164 1.376658 8.615036 0.7735414 0.2721075 0.5723559 0.799576 0.543516
-0.003164 1.021288 8.272348 -1.643181 -0.3478083 -1.085811 0.893451 0.522924
-0.190312 0.943769 8.580395 -0.8215907 -0.1739042 -0.5429053 0.851908 0.477119
-0.170151 1.307489 8.433377 -1.643181 -0.3478083 -1.085811 0.836473 0.551915
-0.003164 1.376658 8.158516 -0.8215907 -0.1739042 -0.5429053 0.873541 0.592786
-0.003164 0.631237 8.243433 -1.716466 0.07589094 -1.023711 0.734866 0.832103
-0.257722 0.525795 8.662436 -0.858233 0.03794547 -0.5118557 0.655097 0.805422
-0.190312 0.943769 8.580395 -1.716466 0.07589094 -1.023711 0.664824 0.887771
-0.003164 1.021288 8.272348 -0.858233 0.03794547 -0.5118557 0.723469 0.907386
-0.257722 0.525795 8.662436 -1.516992 0.4823238 1.210826 0.655097 0.805422
-0.003164 0.631237 8.93936 -0.7584959 0.2411619 0.605413 0.599780 0.821783
-0.003164 1.021288 8.783984 -1.516992 0.4823238 1.210826 0.624156 0.899799
-0.190312 0.943769 8.580395 -0.7584959 0.2411619 0.605413 0.664824 0.887771
-0.170151 1.307489 8.433377 -1.470764 0.9078645 1.006298 0.836473 0.551915
-0.003164 1.376658 8.615036 -0.735382 0.4539322 0.5031491 0.799576 0.543516
-0.003164 1.749287 8.278856 -1.470764 0.9078645 1.006298 0.813828 0.640171
-0.112227 1.704112 8.160211 -0.735382 0.4539322 0.5031491 0.837926 0.645657
0.163824 1.307489 8.422235 1.560221 -0.5389103 -1.129285 0.838279 0.553117
-0.003164 1.376658 8.158516 0.7801106 -0.2694551 -0.5646427 0.873541 0.592786
-0.003164 1.749287 7.980692 1.560221 -0.5389103 -1.129285 0.862136 0.672351
0.1059 1.704112 8.152933 0.7801106 -0.2694551 -0.5646427 0.839105 0.646442
0.183984 0.943769 8.567907 1.618544 -0.3584009 -1.118868 0.667248 0.887956
-0.003164 1.021288 8.272348 0.8092718 -0.1792005 -0.5594341 0.723469 0.907386
-0.003164 1.376658 8.158516 1.618544 -0.3584009 -1.118868 0.740295 0.978054
0.163824 1.307489 8.422235 0.8092718 -0.1792005 -0.5594341 0.690131 0.960718
-0.190312 0.943769 8.580395 -1.515002 0.5606079 1.17919 0.664824 0.887771
-0.003164 1.021288 8.783984 -0.757501 0.2803039 0.5895948 0.624156 0.899799
-0.003164 1.376658 8.615036 -1.515002 0.5606079 1.17919 0.651681 0.971285
-0.170151 1.307489 8.433377 -0.757501 0.2803039 0.5895948 0.687968 0.960552
-0.003164 1.749287 7.980692 -1.329603 -1.042575 -1.070137 0.862136 0.672351
-0.112227 1.704112 8.160211 -0.6648017 -0.5212875 -0.5350685 0.837926 0.645657
-0.102895 2.042525 7.818918 -1.329603 -1.042575 -1.070137 0.856699 0.737320
-0.003163 2.083835 7.65476 -0.6648017 -0.5212875 -0.5350685 0.878837 0.761730
-0.112227 1.704112 8.160211 -1.44832 0.9990078 0.9509749 0.837926 0.645657
-0.003164 1.749287 8.278856 -0.72416 0.4995039 0.4754875 0.813828 0.640171
-0.003163 2.083835 7.927411 -1.44832 0.9990078 0.9509749 0.834662 0.732304
-0.102895 2.042525 7.818918 -0.72416 0.4995039 0.4754875 0.856699 0.737320
-0.003164 1.376658 8.158516 -1.588463 -0.523383 -1.096748 0.873541 0.592786
-0.170151 1.307489 8.433377 -0.7942314 -0.2616915 -0.5483742 0.836473 0.551915
-0.112227 1.704112 8.160211 -1.588463 -0.523383 -1.096748 0.837926 0.645657
-0.003164 1.749287 7.980692 -0.7942314 -0.2616915 -0.5483742 0.862136 0.672351
-0.003164 1.376658 8.615036 1.500481 0.8857747 0.9818139 0.799576 0.543516
0.163824 1.307489 8.422235 0.7502407 0.4428874 0.490907 0.838279 0.553117
0.1059 1.704112 8.152933 1.500481 0.8857747 0.9818139 0.839105 0.646442
-0.003164 1.749287 8.278856 0.7502407 0.4428874 0.490907 0.813828 0.640171
-0.003163 2.083835 7.927411 1.436116 1.104036 0.8477469 0.834662 0.732304
0.096568 2.042525 7.812263 0.7180582 0.5520179 0.4238735 0.857777 0.738038
0.044367 2.43025 7.395751 1.436116 1.104036 0.8477469 0.883414 0.845810
-0.003163 2.449938 7.450629 0.7180582 0.5520179 0.4238735 0.872398 0.843077
-0.003163 2.083835 7.65476 -1.367235 -0.9839052 -1.078239 0.878837 0.761730
-0.102895 2.042525 7.818918 -0.6836173 -0.4919526 -0.5391197 0.856699 0.737320
-0.050694 2.43025 7.398923 -1.367235 -0.9839052 -1.078239 0.882901 0.845467
-0.003163 2.449938 7.320687 -0.6836173 -0.4919526 -0.5391197 0.893451 0.857101
-0.003164 1.749287 8.278856 1.477485 0.9763436 0.9294039 0.813828 0.640171
0.1059 1.704112 8.152933 0.7387425 0.4881718 0.464702 0.839105 0.646442
0.096568 2.042525 7.812263 1.477485 0.9763436 0.9294039 0.857777 0.738038
-0.003163 2.083835 7.927411 0.7387425 0.4881718 0.464702 0.834662 0.732304
0.1059 1.704112 8.152933 1.288302 -1.067529 -1.095746 0.839105 0.646442
-0.003164 1.749287 7.980692 0.644151 -0.5337647 -0.547873 0.862136 0.672351
-0.003163 2.083835 7.65476 1.288302 -1.067529 -1.095746 0.878837 0.761730
0.096568 2.042525 7.812263 0.644151 -0.5337647 -0.547873 0.857777 0.738038
0.044367 2.43025 7.395751 0.3826927 0.9238757 0 0.757643 0.739332
-0.003163 2.449938 7.320687 0.3826927 0.9238757 0 0.741081 0.734344
-0.003163 2.449938 7.450629 0.3826927 0.9238757 0 0.757643 0.753466
-0.003163 2.449938 7.320687 -0.3826858 0.9238786 0 0.741081 0.734344
-0.050694 2.43025 7.398923 -0.3826858 0.9238786 0 0.744058 0.751915
-0.003163 2.449938 7.450629 -0.3826858 0.9238786 0 0.757643 0.753466
0.096568 2.042525 7.812263 1.327472 -1.00834 -1.105019 0.857777 0.738038
-0.003163 2.083835 7.65476 0.6637361 -0.5041702 -0.5525097 0.878837 0.761730
-0.003163 2.449938 7.320687 1.327472 -1.00834 -1.105019 0.893451 0.857101
0.044367 2.43025 7.395751 0.6637361 -0.5041702 -0.5525097 0.883414 0.845810
-0.102895 2.042525 7.818918 -1.40785 1.126706 0.865155 0.856699 0.737320
-0.003163 2.083835 7.927411 -0.7039248 0.563353 0.4325775 0.834662 0.732304
-0.003163 2.449938 7.450629 -1.40785 1.126706 0.865155 0.872398 0.843077
-0.050694 2.43025 7.398923 -0.7039248 0.563353 0.4325775 0.882901 0.845467
3 0 1 2 
3 0 2 3 
3 4 5 6 
3 4 6 7 
3 8 9 10 
3 8 10 11 
3 12 13 14 
3 12 14 15 
3 16 17 18 
3 16 18 19 
3 20 21 22 
3 20 22 23 
3 24 25 26 
3 24 26 27 
3 28 29 30 
3 28 30 31 
3 32 33 34 
3 32 34 35 
3 36 37 38 
3 38 39 40 
3 40 41 42 
3 42 43 36 
3 36 38 40 
3 40 42 36 
3 44 45 46 
3 46 47 48 
3 48 49 50 
3 50 51 44 
3 44 46 48 
3 48 50 44 
3 52 53 54 
3 52 54 55 
3 56 57 58 
3 58 59 60 
3 58 60 56 
3 61 62 63 
3 64 65 61 
3 63 64 61 
3 66 67 68 
3 66 68 69 
3 70 71 72 
3 72 73 74 
3 72 74 70 
3 75 76 77 
3 78 79 80 
3 77 81 75 
3 82 83 84 
3 82 84 85 
3 86 87 88 
3 86 88 89 
3 90 91 92 
3 90 92 93 
3 94 95 96 
3 94 96 97 
3 98 99 100 
3 98 100 101 
3 102 103 104 
3 102 104 105 
3 106 107 108 
3 106 108 109 
3 110 111 112 
3 110 112 113 
3 114 115 116 
3 114 116 117 
3 118 119 120 
3 118 120 121 
3 122 123 124 
3 122 124 125 
3 126 127 128 
3 126 128 129 
3 130 131 132 
3 130 132 133 
3 134 135 136 
3 134 136 137 
3 138 139 140 
3 138 140 141 
3 142 143 144 
3 142 144 145 
3 146 147 148 
3 146 148 149 
3 150 151 152 
3 150 152 153 
3 154 155 156 
3 154 156 157 
3 158 159 160 
3 158 160 161 
3 162 163 164 
3 162 164 165 
3 166 167 168 
3 169 170 171 
3 172 173 174 
3 172 174 175 
3 176 177 178 
3 176 178 179 
3 180 181 182 
3 180 182 183 
3 184 185 186 
3 184 186 187 
3 188 189 190 
3 188 190 191 
3 192 193 194 
3 192 194 195 
3 196 197 198 
3 196 198 199 
3 200 201 202 
3 200 202 203 
3 204 205 206 
3 204 206 207 
3 208 209 210 
3 208 210 211 
3 212 213 214 
3 212 214 215 
3 216 217 218 
3 216 218 219 
3 220 221 222 
3 220 222 223 
3 224 225 226 
3 224 226 227 
3 228 229 230 
3 228 230 231 
3 232 233 234 
3 232 234 235 
3 236 237 238 
3 236 238 239 
3 240 241 242 
3 240 242 243 
3 244 245 246 
3 244 246 247 
3 248 249 250 
3 248 250 251 
3 252 253 254 
3 252 254 255 
3 256 257 258 
3 256 258 259 
3 260 261 262 
3 260 262 263 
3 264 265 266 
3 264 266 267 
3 268 269 270 
3 268 270 271 
3 272 273 274 
3 272 274 275 
3 276 277 278 
3 279 280 281 
3 282 283 284 
3 282 284 285 
3 286 287 288 
3 286 288 289 
